tb_all.vcd
$date
	Sat Jul  4 05:20:04 2026
$end
$version
	Icarus Verilog
$end
$timescale
	1ps
$end
$scope module tb_all $end
$var wire 32 ! dbg_x9 [31:0] $end
$var wire 32 " dbg_x8 [31:0] $end
$var wire 32 # dbg_x7 [31:0] $end
$var wire 32 $ dbg_x6 [31:0] $end
$var wire 32 % dbg_x5 [31:0] $end
$var wire 32 & dbg_x3 [31:0] $end
$var wire 32 ' dbg_x2 [31:0] $end
$var wire 32 ( dbg_x17 [31:0] $end
$var wire 32 ) dbg_x16 [31:0] $end
$var wire 32 * dbg_x12 [31:0] $end
$var wire 32 + dbg_x11 [31:0] $end
$var wire 32 , dbg_x10 [31:0] $end
$var wire 32 - dbg_x1 [31:0] $end
$var wire 32 . dbg_pc [31:0] $end
$var wire 32 / dbg_if_instr [31:0] $end
$var wire 32 0 dbg_id_instr [31:0] $end
$var wire 32 1 dbg_dm2 [31:0] $end
$var wire 32 2 dbg_dm1 [31:0] $end
$var wire 32 3 dbg_dm0 [31:0] $end
$var reg 1 4 clk $end
$var reg 1 5 rst $end
$var integer 32 6 fail_cnt [31:0] $end
$var integer 32 7 k [31:0] $end
$var integer 32 8 pass_cnt [31:0] $end
$scope module u_dut $end
$var wire 1 4 clk $end
$var wire 32 9 dbg_dm0 [31:0] $end
$var wire 32 : dbg_dm1 [31:0] $end
$var wire 32 ; dbg_dm2 [31:0] $end
$var wire 32 < dbg_id_instr [31:0] $end
$var wire 32 = dbg_if_instr [31:0] $end
$var wire 32 > dbg_pc [31:0] $end
$var wire 32 ? dbg_x1 [31:0] $end
$var wire 32 @ dbg_x10 [31:0] $end
$var wire 32 A dbg_x11 [31:0] $end
$var wire 32 B dbg_x12 [31:0] $end
$var wire 32 C dbg_x16 [31:0] $end
$var wire 32 D dbg_x17 [31:0] $end
$var wire 32 E dbg_x2 [31:0] $end
$var wire 32 F dbg_x3 [31:0] $end
$var wire 32 G dbg_x5 [31:0] $end
$var wire 32 H dbg_x6 [31:0] $end
$var wire 32 I dbg_x7 [31:0] $end
$var wire 32 J dbg_x8 [31:0] $end
$var wire 32 K dbg_x9 [31:0] $end
$var wire 1 L id_mispredict $end
$var wire 1 M id_redirect $end
$var wire 1 N id_take_branch $end
$var wire 1 5 rst $end
$var wire 32 O wb_write_data [31:0] $end
$var wire 32 P wb_read_data [31:0] $end
$var wire 5 Q wb_rd [4:0] $end
$var wire 32 R wb_pc_plus4 [31:0] $end
$var wire 1 S wb_csr_sel $end
$var wire 2 T wb_csr_op [1:0] $end
$var wire 12 U wb_csr_addr [11:0] $end
$var wire 32 V wb_alu_result [31:0] $end
$var wire 1 W wb_RegWrite $end
$var wire 1 X wb_MemToReg $end
$var wire 1 Y wb_Jump $end
$var wire 1 Z stall_pc $end
$var wire 1 [ stall_mem_wb $end
$var wire 1 \ stall_if_id $end
$var wire 1 ] stall_id_ex $end
$var wire 1 ^ stall_ex_mem $end
$var wire 32 _ pred_target [31:0] $end
$var wire 1 ` pred_taken $end
$var wire 32 a pc_next [31:0] $end
$var wire 32 b pc_current [31:0] $end
$var wire 32 c mul_div_result [31:0] $end
$var wire 32 d mtvec_out [31:0] $end
$var wire 32 e mmio_rdata [31:0] $end
$var wire 1 f mem_zero $end
$var wire 32 g mem_write_data [31:0] $end
$var wire 32 h mem_read_data1_reg [31:0] $end
$var wire 32 i mem_read_data [31:0] $end
$var wire 5 j mem_rd [4:0] $end
$var wire 32 k mem_pc_plus4 [31:0] $end
$var wire 3 l mem_funct3 [2:0] $end
$var wire 32 m mem_forward_data [31:0] $end
$var wire 1 n mem_csr_sel $end
$var wire 2 o mem_csr_op [1:0] $end
$var wire 12 p mem_csr_addr [11:0] $end
$var wire 32 q mem_alu_result [31:0] $end
$var wire 1 r mem_RegWrite $end
$var wire 1 s mem_MemWrite $end
$var wire 1 t mem_MemToReg $end
$var wire 1 u mem_MemRead $end
$var wire 1 v mem_Branch $end
$var wire 1 w jump_mem $end
$var wire 1 x is_mmio $end
$var wire 1 y imem_write $end
$var wire 32 z imem_wdata [31:0] $end
$var wire 1 { imem_read $end
$var wire 32 | imem_rdata [31:0] $end
$var wire 32 } imem_addr [31:0] $end
$var wire 32 ~ if_instr [31:0] $end
$var wire 32 !" id_val2 [31:0] $end
$var wire 32 "" id_val1 [31:0] $end
$var wire 1 #" id_trap_en $end
$var wire 32 $" id_trap_cause [31:0] $end
$var wire 5 %" id_rs2 [4:0] $end
$var wire 5 &" id_rs1 [4:0] $end
$var wire 32 '" id_read_data2 [31:0] $end
$var wire 32 (" id_read_data1 [31:0] $end
$var wire 5 )" id_rd [4:0] $end
$var wire 32 *" id_pred_target [31:0] $end
$var wire 1 +" id_pred_taken $end
$var wire 32 ," id_pc [31:0] $end
$var wire 7 -" id_opcode [6:0] $end
$var wire 32 ." id_mispredict_target [31:0] $end
$var wire 32 /" id_instr [31:0] $end
$var wire 32 0" id_imm [31:0] $end
$var wire 1 1" id_funct7_5 $end
$var wire 1 2" id_funct7_0 $end
$var wire 3 3" id_funct3 [2:0] $end
$var wire 1 4" id_csr_sel $end
$var wire 2 5" id_csr_op [1:0] $end
$var wire 32 6" id_branch_target [31:0] $end
$var wire 1 7" id_RegWrite $end
$var wire 1 8" id_MemWrite $end
$var wire 1 9" id_MemToReg $end
$var wire 1 :" id_MemRead $end
$var wire 1 ;" id_Jump $end
$var wire 1 <" id_Branch $end
$var wire 1 =" id_ALUSrc $end
$var wire 2 >" id_ALUOp [1:0] $end
$var wire 1 ?" icache_stall $end
$var wire 1 @" flush_mem_wb $end
$var wire 1 A" flush_if_id $end
$var wire 1 B" flush_id_ex $end
$var wire 1 C" flush_ex_mem $end
$var wire 32 D" final_mem_read_data [31:0] $end
$var wire 1 E" ex_zero $end
$var wire 5 F" ex_rs2 [4:0] $end
$var wire 5 G" ex_rs1 [4:0] $end
$var wire 32 H" ex_read_data2 [31:0] $end
$var wire 32 I" ex_read_data1 [31:0] $end
$var wire 5 J" ex_rd [4:0] $end
$var wire 32 K" ex_pc_plus4 [31:0] $end
$var wire 32 L" ex_pc [31:0] $end
$var wire 7 M" ex_opcode [6:0] $end
$var wire 1 N" ex_is_mul_div $end
$var wire 1 O" ex_is_mul $end
$var wire 1 P" ex_is_lui $end
$var wire 1 Q" ex_is_auipc $end
$var wire 32 R" ex_imm [31:0] $end
$var wire 32 S" ex_fwd_b [31:0] $end
$var wire 32 T" ex_fwd_a [31:0] $end
$var wire 1 U" ex_funct7_5 $end
$var wire 1 V" ex_funct7_0 $end
$var wire 3 W" ex_funct3 [2:0] $end
$var wire 1 X" ex_csr_sel $end
$var wire 2 Y" ex_csr_op [1:0] $end
$var wire 12 Z" ex_csr_addr [11:0] $end
$var wire 32 [" ex_branch_target [31:0] $end
$var wire 32 \" ex_alu_result [31:0] $end
$var wire 32 ]" ex_alu_b [31:0] $end
$var wire 32 ^" ex_alu_a [31:0] $end
$var wire 1 _" ex_RegWrite $end
$var wire 1 `" ex_MemWrite $end
$var wire 1 a" ex_MemToReg $end
$var wire 1 b" ex_MemRead $end
$var wire 1 c" ex_Jump $end
$var wire 1 d" ex_Branch $end
$var wire 1 e" ex_ALUSrc $end
$var wire 2 f" ex_ALUOp [1:0] $end
$var wire 4 g" ex_ALUCtrl [3:0] $end
$var wire 1 h" dmem_write $end
$var wire 32 i" dmem_wdata [31:0] $end
$var wire 1 j" dmem_read $end
$var wire 32 k" dmem_rdata [31:0] $end
$var wire 32 l" dmem_addr [31:0] $end
$var wire 1 m" dcache_stall $end
$var wire 32 n" csr_wdata_raw [31:0] $end
$var wire 32 o" csr_rdata [31:0] $end
$var wire 32 p" branch_target_mem [31:0] $end
$var wire 32 q" alu_result_raw [31:0] $end
$var wire 2 r" ForwardB [1:0] $end
$var wire 2 s" ForwardA [1:0] $end
$var reg 32 t" cycle_counter [31:0] $end
$var reg 1 u" id_branch_taken $end
$var reg 32 v" if_id_instr_r [31:0] $end
$var reg 32 w" if_id_pc_r [31:0] $end
$var reg 1 +" if_id_pred_taken $end
$var reg 32 x" if_id_pred_target [31:0] $end
$scope module u_alu $end
$var wire 32 y" a [31:0] $end
$var wire 32 z" b [31:0] $end
$var wire 1 E" zero $end
$var wire 4 {" ALUCtrl [3:0] $end
$var reg 32 |" result [31:0] $end
$upscope $end
$scope module u_aluctl $end
$var wire 7 }" opcode [6:0] $end
$var wire 1 U" funct7_5 $end
$var wire 1 V" funct7_0 $end
$var wire 3 ~" funct3 [2:0] $end
$var wire 2 !# ALUOp [1:0] $end
$var parameter 7 "# I_ARITH $end
$var reg 4 ## ALUCtrl [3:0] $end
$var reg 1 O" is_mul $end
$var reg 1 N" is_mul_div $end
$upscope $end
$scope module u_bp $end
$var wire 1 4 clk $end
$var wire 1 ` pred_taken $end
$var wire 1 5 rst $end
$var wire 1 $# update_en $end
$var wire 32 %# update_pc [31:0] $end
$var wire 1 M update_taken $end
$var wire 32 &# update_target [31:0] $end
$var wire 27 '# update_tag [26:0] $end
$var wire 3 (# update_index [2:0] $end
$var wire 32 )# pred_target [31:0] $end
$var wire 27 *# fetch_tag [26:0] $end
$var wire 32 +# fetch_pc [31:0] $end
$var wire 3 ,# fetch_index [2:0] $end
$var integer 32 -# i [31:0] $end
$upscope $end
$scope module u_csr $end
$var wire 1 4 clk $end
$var wire 1 .# inst_retired $end
$var wire 32 /# mtvec_out [31:0] $end
$var wire 1 5 rst $end
$var wire 32 0# trap_pc [31:0] $end
$var wire 1 #" trap_en $end
$var wire 32 1# trap_cause [31:0] $end
$var wire 32 2# csr_wdata [31:0] $end
$var wire 2 3# csr_op [1:0] $end
$var wire 12 4# csr_addr [11:0] $end
$var reg 32 5# csr_rdata [31:0] $end
$var reg 32 6# mcause [31:0] $end
$var reg 32 7# mcycle [31:0] $end
$var reg 32 8# mepc [31:0] $end
$var reg 32 9# minstret [31:0] $end
$var reg 32 :# mstatus [31:0] $end
$var reg 32 ;# mtvec [31:0] $end
$upscope $end
$scope module u_ctrl $end
$var wire 12 <# funct12 [11:0] $end
$var wire 3 =# funct3 [2:0] $end
$var wire 7 ># opcode [6:0] $end
$var parameter 7 ?# AUIPC $end
$var parameter 7 @# BRANCH $end
$var parameter 7 A# I_ARITH $end
$var parameter 7 B# JAL $end
$var parameter 7 C# JALR $end
$var parameter 7 D# LOAD $end
$var parameter 7 E# LUI $end
$var parameter 7 F# R_TYPE $end
$var parameter 7 G# STORE $end
$var parameter 7 H# SYSTEM $end
$var reg 2 I# ALUOp [1:0] $end
$var reg 1 =" ALUSrc $end
$var reg 1 <" Branch $end
$var reg 1 ;" Jump $end
$var reg 1 :" MemRead $end
$var reg 1 9" MemToReg $end
$var reg 1 8" MemWrite $end
$var reg 1 7" RegWrite $end
$var reg 2 J# csr_op [1:0] $end
$var reg 1 4" csr_sel $end
$var reg 32 K# trap_cause [31:0] $end
$var reg 1 #" trap_en $end
$upscope $end
$scope module u_dcache $end
$var wire 1 4 clk $end
$var wire 1 L# cpu_read $end
$var wire 1 M# cpu_write $end
$var wire 1 N# hit $end
$var wire 32 O# mem_addr [31:0] $end
$var wire 32 P# mem_wdata [31:0] $end
$var wire 1 5 rst $end
$var wire 27 Q# tag [26:0] $end
$var wire 1 h" mem_write $end
$var wire 1 j" mem_read $end
$var wire 32 R# mem_rdata [31:0] $end
$var wire 3 S# index [2:0] $end
$var wire 32 T# cpu_wdata [31:0] $end
$var wire 1 m" cpu_stall $end
$var wire 32 U# cpu_addr [31:0] $end
$var parameter 3 V# FILL $end
$var parameter 3 W# IDLE $end
$var parameter 3 X# WAIT0 $end
$var parameter 3 Y# WAIT1 $end
$var parameter 3 Z# WAIT2 $end
$var parameter 3 [# WAIT3 $end
$var reg 32 \# cpu_rdata [31:0] $end
$var reg 3 ]# state [2:0] $end
$var integer 32 ^# i [31:0] $end
$upscope $end
$scope module u_dmem $end
$var wire 1 j" MemRead $end
$var wire 1 h" MemWrite $end
$var wire 32 _# addr [31:0] $end
$var wire 1 4 clk $end
$var wire 32 `# write_data [31:0] $end
$var reg 32 a# read_data [31:0] $end
$var integer 32 b# i [31:0] $end
$upscope $end
$scope module u_ex_mem $end
$var wire 1 4 clk $end
$var wire 32 c# in_alu_result [31:0] $end
$var wire 32 d# in_branch_target [31:0] $end
$var wire 32 e# in_pc_plus4 [31:0] $end
$var wire 32 f# in_read_data1 [31:0] $end
$var wire 32 g# in_write_data [31:0] $end
$var wire 1 E" in_zero $end
$var wire 1 5 rst $end
$var wire 1 ^ stall $end
$var wire 5 h# in_rd [4:0] $end
$var wire 3 i# in_funct3 [2:0] $end
$var wire 1 X" in_csr_sel $end
$var wire 2 j# in_csr_op [1:0] $end
$var wire 12 k# in_csr_addr [11:0] $end
$var wire 1 _" in_RegWrite $end
$var wire 1 `" in_MemWrite $end
$var wire 1 a" in_MemToReg $end
$var wire 1 b" in_MemRead $end
$var wire 1 c" in_Jump $end
$var wire 1 d" in_Branch $end
$var wire 1 C" flush $end
$var reg 1 v out_Branch $end
$var reg 1 w out_Jump $end
$var reg 1 u out_MemRead $end
$var reg 1 t out_MemToReg $end
$var reg 1 s out_MemWrite $end
$var reg 1 r out_RegWrite $end
$var reg 32 l# out_alu_result [31:0] $end
$var reg 32 m# out_branch_target [31:0] $end
$var reg 12 n# out_csr_addr [11:0] $end
$var reg 2 o# out_csr_op [1:0] $end
$var reg 1 n out_csr_sel $end
$var reg 3 p# out_funct3 [2:0] $end
$var reg 32 q# out_pc_plus4 [31:0] $end
$var reg 5 r# out_rd [4:0] $end
$var reg 32 s# out_read_data1 [31:0] $end
$var reg 32 t# out_write_data [31:0] $end
$var reg 1 f out_zero $end
$upscope $end
$scope module u_fwd $end
$var wire 1 r mem_RegWrite $end
$var wire 5 u# mem_rd [4:0] $end
$var wire 5 v# wb_rd [4:0] $end
$var wire 1 W wb_RegWrite $end
$var wire 5 w# ex_rs2 [4:0] $end
$var wire 5 x# ex_rs1 [4:0] $end
$var reg 2 y# ForwardA [1:0] $end
$var reg 2 z# ForwardB [1:0] $end
$upscope $end
$scope module u_hazard $end
$var wire 1 {# branch_jalr_in_id $end
$var wire 1 |# branch_stall $end
$var wire 1 m" dcache_stall $end
$var wire 1 C" flush_ex_mem $end
$var wire 1 B" flush_id_ex $end
$var wire 1 A" flush_if_id $end
$var wire 1 @" flush_mem_wb $end
$var wire 1 }# global_stall $end
$var wire 1 ~# hazard_stall $end
$var wire 1 <" id_Branch $end
$var wire 3 !$ id_funct3 [2:0] $end
$var wire 1 "$ id_is_csr_imm $end
$var wire 7 #$ id_opcode [6:0] $end
$var wire 1 $$ id_reads_rs1 $end
$var wire 1 %$ id_reads_rs2 $end
$var wire 1 L id_redirect $end
$var wire 5 &$ id_rs1 [4:0] $end
$var wire 5 '$ id_rs2 [4:0] $end
$var wire 1 ($ load_use_stall $end
$var wire 1 u mem_MemRead $end
$var wire 1 r mem_RegWrite $end
$var wire 5 )$ mem_rd [4:0] $end
$var wire 1 ^ stall_ex_mem $end
$var wire 1 ] stall_id_ex $end
$var wire 1 \ stall_if_id $end
$var wire 1 [ stall_mem_wb $end
$var wire 1 Z stall_pc $end
$var wire 1 #" trap_en $end
$var wire 1 ?" icache_stall $end
$var wire 5 *$ ex_rd [4:0] $end
$var wire 1 _" ex_RegWrite $end
$var wire 1 b" ex_MemRead $end
$upscope $end
$scope module u_icache $end
$var wire 1 4 clk $end
$var wire 1 +$ cpu_read $end
$var wire 32 ,$ cpu_wdata [31:0] $end
$var wire 1 -$ cpu_write $end
$var wire 1 .$ hit $end
$var wire 32 /$ mem_addr [31:0] $end
$var wire 32 0$ mem_wdata [31:0] $end
$var wire 1 5 rst $end
$var wire 27 1$ tag [26:0] $end
$var wire 1 y mem_write $end
$var wire 1 { mem_read $end
$var wire 32 2$ mem_rdata [31:0] $end
$var wire 3 3$ index [2:0] $end
$var wire 1 ?" cpu_stall $end
$var wire 32 4$ cpu_addr [31:0] $end
$var parameter 3 5$ FILL $end
$var parameter 3 6$ IDLE $end
$var parameter 3 7$ WAIT0 $end
$var parameter 3 8$ WAIT1 $end
$var parameter 3 9$ WAIT2 $end
$var parameter 3 :$ WAIT3 $end
$var reg 32 ;$ cpu_rdata [31:0] $end
$var reg 3 <$ state [2:0] $end
$var integer 32 =$ i [31:0] $end
$upscope $end
$scope module u_id_ex $end
$var wire 1 4 clk $end
$var wire 1 B" flush $end
$var wire 2 >$ in_ALUOp [1:0] $end
$var wire 1 =" in_ALUSrc $end
$var wire 1 <" in_Branch $end
$var wire 1 ;" in_Jump $end
$var wire 1 :" in_MemRead $end
$var wire 1 9" in_MemToReg $end
$var wire 1 8" in_MemWrite $end
$var wire 1 7" in_RegWrite $end
$var wire 12 ?$ in_csr_addr [11:0] $end
$var wire 2 @$ in_csr_op [1:0] $end
$var wire 1 4" in_csr_sel $end
$var wire 3 A$ in_funct3 [2:0] $end
$var wire 1 2" in_funct7_0 $end
$var wire 1 1" in_funct7_5 $end
$var wire 7 B$ in_opcode [6:0] $end
$var wire 32 C$ in_pc [31:0] $end
$var wire 5 D$ in_rd [4:0] $end
$var wire 5 E$ in_rs1 [4:0] $end
$var wire 5 F$ in_rs2 [4:0] $end
$var wire 1 5 rst $end
$var wire 1 ] stall $end
$var wire 32 G$ in_read_data2 [31:0] $end
$var wire 32 H$ in_read_data1 [31:0] $end
$var wire 32 I$ in_imm [31:0] $end
$var reg 2 J$ out_ALUOp [1:0] $end
$var reg 1 e" out_ALUSrc $end
$var reg 1 d" out_Branch $end
$var reg 1 c" out_Jump $end
$var reg 1 b" out_MemRead $end
$var reg 1 a" out_MemToReg $end
$var reg 1 `" out_MemWrite $end
$var reg 1 _" out_RegWrite $end
$var reg 12 K$ out_csr_addr [11:0] $end
$var reg 2 L$ out_csr_op [1:0] $end
$var reg 1 X" out_csr_sel $end
$var reg 3 M$ out_funct3 [2:0] $end
$var reg 1 V" out_funct7_0 $end
$var reg 1 U" out_funct7_5 $end
$var reg 32 N$ out_imm [31:0] $end
$var reg 7 O$ out_opcode [6:0] $end
$var reg 32 P$ out_pc [31:0] $end
$var reg 5 Q$ out_rd [4:0] $end
$var reg 32 R$ out_read_data1 [31:0] $end
$var reg 32 S$ out_read_data2 [31:0] $end
$var reg 5 T$ out_rs1 [4:0] $end
$var reg 5 U$ out_rs2 [4:0] $end
$upscope $end
$scope module u_imem $end
$var wire 32 V$ addr [31:0] $end
$var wire 1 4 clk $end
$var reg 32 W$ instr [31:0] $end
$upscope $end
$scope module u_immgen $end
$var wire 32 X$ instr [31:0] $end
$var wire 7 Y$ opcode [6:0] $end
$var parameter 7 Z$ AUIPC $end
$var parameter 7 [$ BRANCH $end
$var parameter 7 \$ I_ARITH $end
$var parameter 7 ]$ JAL $end
$var parameter 7 ^$ JALR $end
$var parameter 7 _$ LOAD $end
$var parameter 7 `$ LUI $end
$var parameter 7 a$ STORE $end
$var reg 32 b$ imm_out [31:0] $end
$upscope $end
$scope module u_mem_wb $end
$var wire 1 4 clk $end
$var wire 1 @" flush $end
$var wire 1 w in_Jump $end
$var wire 1 t in_MemToReg $end
$var wire 1 r in_RegWrite $end
$var wire 32 c$ in_alu_result [31:0] $end
$var wire 12 d$ in_csr_addr [11:0] $end
$var wire 2 e$ in_csr_op [1:0] $end
$var wire 1 n in_csr_sel $end
$var wire 32 f$ in_pc_plus4 [31:0] $end
$var wire 5 g$ in_rd [4:0] $end
$var wire 32 h$ in_read_data [31:0] $end
$var wire 1 5 rst $end
$var wire 1 [ stall $end
$var reg 1 Y out_Jump $end
$var reg 1 X out_MemToReg $end
$var reg 1 W out_RegWrite $end
$var reg 32 i$ out_alu_result [31:0] $end
$var reg 12 j$ out_csr_addr [11:0] $end
$var reg 2 k$ out_csr_op [1:0] $end
$var reg 1 S out_csr_sel $end
$var reg 32 l$ out_pc_plus4 [31:0] $end
$var reg 5 m$ out_rd [4:0] $end
$var reg 32 n$ out_read_data [31:0] $end
$upscope $end
$scope module u_mult_div $end
$var wire 32 o$ a [31:0] $end
$var wire 32 p$ b [31:0] $end
$var wire 3 q$ funct3 [2:0] $end
$var wire 1 O" is_mul $end
$var wire 64 r$ mul_unsigned [63:0] $end
$var wire 64 s$ mul_signed_unsigned [63:0] $end
$var wire 64 t$ mul_signed [63:0] $end
$var reg 32 u$ result [31:0] $end
$upscope $end
$scope module u_pc $end
$var wire 1 4 clk $end
$var wire 32 v$ pc_next [31:0] $end
$var wire 1 5 rst $end
$var reg 32 w$ pc_out [31:0] $end
$upscope $end
$scope module u_regfile $end
$var wire 1 W RegWrite $end
$var wire 1 4 clk $end
$var wire 5 x$ rd [4:0] $end
$var wire 5 y$ rs1 [4:0] $end
$var wire 5 z$ rs2 [4:0] $end
$var wire 1 5 rst $end
$var wire 32 {$ write_data [31:0] $end
$var wire 32 |$ read_data2 [31:0] $end
$var wire 32 }$ read_data1 [31:0] $end
$var integer 32 ~$ i [31:0] $end
$upscope $end
$upscope $end
$upscope $end
$enddefinitions $end
$comment Show the parameter values. $end
$dumpall
b100011 a$
b110111 `$
b11 _$
b1100111 ^$
b1101111 ]$
b10011 \$
b1100011 [$
b10111 Z$
b100 :$
b11 9$
b10 8$
b1 7$
b0 6$
b101 5$
b100 [#
b11 Z#
b10 Y#
b1 X#
b0 W#
b101 V#
b1110011 H#
b100011 G#
b110011 F#
b110111 E#
b11 D#
b1100111 C#
b1101111 B#
b10011 A#
b1100011 @#
b10111 ?#
b10011 "#
$end
#0
$dumpvars
b100000 ~$
b0 }$
b0 |$
b0 {$
b0 z$
b0 y$
b0 x$
b0 w$
b0 v$
b0 u$
b0 t$
b0 s$
b0 r$
b0 q$
b0 p$
b0 o$
b0 n$
b0 m$
b0 l$
b0 k$
b0 j$
b0 i$
b0 h$
b0 g$
b0 f$
b0 e$
b0 d$
b0 c$
b0 b$
b10011 Y$
b10011 X$
bx W$
b0 V$
b0 U$
b0 T$
b0 S$
b0 R$
b0 Q$
b0 P$
b0 O$
b0 N$
b0 M$
b0 L$
b0 K$
b0 J$
b0 I$
b0 H$
b0 G$
b0 F$
b0 E$
b0 D$
b0 C$
b10011 B$
b0 A$
b0 @$
b0 ?$
b10 >$
b1000 =$
b0 <$
b0 ;$
b0 4$
b0 3$
bx 2$
b0 1$
b0 0$
b0 /$
0.$
0-$
b0 ,$
1+$
b0 *$
b0 )$
0($
b0 '$
b0 &$
0%$
1$$
b10011 #$
0"$
b0 !$
0~#
1}#
0|#
0{#
b0 z#
b0 y#
b0 x#
b0 w#
b0 v#
b0 u#
b0 t#
b0 s#
b0 r#
b0 q#
b0 p#
b0 o#
b0 n#
b0 m#
b0 l#
b0 k#
b0 j#
b0 i#
b0 h#
b0 g#
b0 f#
b100 e#
b0 d#
b0 c#
b1000000 b#
bx a#
b0 `#
b0 _#
b1000 ^#
b0 ]#
b0 \#
b0 U#
b0 T#
b0 S#
bx R#
b0 Q#
b0 P#
b0 O#
0N#
0M#
0L#
b0 K#
b0 J#
b10 I#
b10011 >#
b0 =#
b0 <#
b1000000 ;#
b1100000000000 :#
b0 9#
b0 8#
b0 7#
b0 6#
b0 5#
b0 4#
b0 3#
b0 2#
b0 1#
b0 0#
b1000000 /#
0.#
b1000 -#
b0 ,#
b0 +#
b0 *#
b100 )#
b0 (#
b0 '#
b0 &#
b0 %#
0$#
b0 ##
b0 !#
b0 ~"
b0 }"
b0 |"
b0 {"
b0 z"
b0 y"
b0 x"
b0 w"
b10011 v"
1u"
b0 t"
b0 s"
b0 r"
b0 q"
b0 p"
b0 o"
b0 n"
0m"
b0 l"
bx k"
0j"
b0 i"
0h"
b0 g"
b0 f"
0e"
0d"
0c"
0b"
0a"
0`"
0_"
b0 ^"
b0 ]"
b0 \"
b0 ["
b0 Z"
b0 Y"
0X"
b0 W"
0V"
0U"
b0 T"
b0 S"
b0 R"
0Q"
0P"
0O"
0N"
b0 M"
b0 L"
b100 K"
b0 J"
b0 I"
b0 H"
b0 G"
b0 F"
1E"
b0 D"
0C"
0B"
0A"
0@"
1?"
b10 >"
1="
0<"
0;"
0:"
09"
08"
17"
b0 6"
b0 5"
04"
b0 3"
02"
01"
b0 0"
b10011 /"
b100 ."
b10011 -"
b0 ,"
0+"
b0 *"
b0 )"
b0 ("
b0 '"
b0 &"
b0 %"
b0 $"
0#"
b0 ""
b0 !"
b0 ~
b0 }
bx |
1{
b0 z
0y
0x
0w
0v
0u
0t
0s
0r
b0 q
b0 p
b0 o
0n
b0 m
b0 l
b0 k
b0 j
b0 i
b0 h
b0 g
0f
b0 e
b1000000 d
b0 c
b0 b
b0 a
0`
b100 _
1^
1]
1\
1[
1Z
0Y
0X
0W
b0 V
b0 U
b0 T
0S
b0 R
b0 Q
b0 P
b0 O
0N
0M
0L
b0 K
b0 J
b0 I
b0 H
b0 G
b0 F
b0 E
b0 D
b0 C
b0 B
b0 A
b0 @
b0 ?
b0 >
b0 =
b10011 <
b0 ;
b0 :
b0 9
b0 8
b1000000 7
b0 6
15
04
b0 3
b0 2
b0 1
b10011 0
b0 /
b0 .
b0 -
b0 ,
b0 +
b0 *
b0 )
b0 (
b0 '
b0 &
b0 %
b0 $
b0 #
b0 "
b0 !
$end
#5000
b101000000000000010010011 |
b101000000000000010010011 2$
b101000000000000010010011 W$
b0 k"
b0 R#
b0 a#
b1000 ^#
b1000 -#
b100000 ~$
b1000 =$
14
#10000
04
#15000
b1000 =$
b100000 ~$
b1000 -#
b1000 ^#
14
#20000
04
#25000
b1000 ^#
b1000 -#
b100000 ~$
b1000 =$
14
#30000
04
#35000
b1000 =$
b100000 ~$
b1000 -#
b1000 ^#
14
#40000
04
#45000
b1000 ^#
b1000 -#
b100000 ~$
b1000 =$
14
#50000
04
#55000
b1000 =$
b100000 ~$
b1000 -#
b1000 ^#
14
#60000
05
04
#65000
b1 t"
b1 7#
b1 <$
14
#70000
04
#75000
b10 <$
b10 7#
b10 t"
14
#80000
04
#85000
b11 t"
b11 7#
b11 <$
14
#90000
04
#95000
b100 <$
b100 7#
b100 t"
14
#100000
04
#105000
b100 a
b100 v$
0Z
0\
0]
0^
0[
0}#
b101000000000000010010011 /
b101000000000000010010011 =
b101000000000000010010011 ~
b101000000000000010010011 ;$
0?"
0{
b101 t"
b101 7#
b101 <$
14
#110000
04
#115000
b100 a
b100 v$
1Z
1\
1]
1^
1[
1}#
b10 >"
b10 I#
b10 >$
1="
17"
b1010 6"
b1010 &#
b1 3$
b1000 _
b1000 )#
b1 ,#
1?"
1{
0.$
b0 /
b0 =
b0 ~
b0 ;$
b1 )"
b1 D$
b1010 %"
b1010 '$
b1010 F$
b1010 z$
b1010 <#
b1010 ?$
b1010 0"
b1010 I$
b1010 b$
b100 }
b100 /$
b100 V$
b100 .
b100 >
b100 b
b100 +#
b100 4$
b100 w$
b0 <$
b10011 M"
b10011 }"
b10011 O$
b10 f"
b10 !#
b10 J$
1e"
1_"
b100 k
b100 q#
b100 f$
1f
b110 7#
b100 *"
b100 x"
b101000000000000010010011 0
b101000000000000010010011 <
b101000000000000010010011 /"
b101000000000000010010011 v"
b101000000000000010010011 X$
b110 t"
14
#120000
04
#125000
b111 t"
b111 7#
b1 <$
b1010000000000000100010011 |
b1010000000000000100010011 2$
b1010000000000000100010011 W$
14
#130000
04
#135000
b10 <$
b1000 7#
b1000 t"
14
#140000
04
#145000
b1001 t"
b1001 7#
b11 <$
14
#150000
04
#155000
b100 <$
b1010 7#
b1010 t"
14
#160000
04
#165000
b1000 a
b1000 v$
0Z
0\
0]
0^
0[
0}#
b1010000000000000100010011 /
b1010000000000000100010011 =
b1010000000000000100010011 ~
b1010000000000000100010011 ;$
0?"
0{
b1011 t"
b1011 7#
b101 <$
14
#170000
04
#175000
b1000 a
b1000 v$
b1010 \"
b1010 c#
1Z
1\
1]
1^
1[
1}#
0E"
b1010 q"
b1010 |"
b10 >"
b10 I#
b10 >$
1="
17"
b10 3$
b1100 _
b1100 )#
b10 ,#
1?"
1{
0.$
b0 /
b0 =
b0 ~
b0 ;$
b1010 ]"
b1010 z"
b1010 p$
b10 )"
b10 D$
b10100 %"
b10100 '$
b10100 F$
b10100 z$
b10100 <#
b10100 ?$
b10100 0"
b10100 I$
b10100 b$
b11000 6"
b11000 &#
b1000 ."
b1 (#
b1000 }
b1000 /$
b1000 V$
b1000 .
b1000 >
b1000 b
b1000 +#
b1000 4$
b1000 w$
b0 <$
b1010 Z"
b1010 k#
b1010 K$
b1 J"
b1 h#
b1 *$
b1 Q$
b1010 F"
b1010 w#
b1010 U$
b1010 ["
b1010 d#
b1010 R"
b1010 N$
1r
b100 R
b100 l$
b1100 7#
b1000 *"
b1000 x"
b1010000000000000100010011 0
b1010000000000000100010011 <
b1010000000000000100010011 /"
b1010000000000000100010011 v"
b1010000000000000100010011 X$
b100 ,"
b100 w"
b100 %#
b100 0#
b100 C$
b1100 t"
14
#180000
04
#185000
b1101 t"
b1101 7#
b1 <$
b10100000000000110010011 |
b10100000000000110010011 2$
b10100000000000110010011 W$
14
#190000
04
#195000
b10 <$
b1110 7#
b1110 t"
14
#200000
04
#205000
b1111 t"
b1111 7#
b11 <$
14
#210000
04
#215000
b100 <$
b10000 7#
b10000 t"
14
#220000
04
#225000
b1100 a
b1100 v$
0Z
0\
0]
0^
0[
0}#
b10100000000000110010011 /
b10100000000000110010011 =
b10100000000000110010011 ~
b10100000000000110010011 ;$
0?"
0{
b10001 t"
b10001 7#
b101 <$
14
#230000
04
