tb_hazard_fwd.vcd
$date
	Sat Jul  4 02:36:01 2026
$end
$version
	Icarus Verilog
$end
$timescale
	1ps
$end
$scope module tb_hazard_fwd $end
$var wire 32 ! dbg_x9 [31:0] $end
$var wire 32 " dbg_x8 [31:0] $end
$var wire 32 # dbg_x7 [31:0] $end
$var wire 32 $ dbg_x6 [31:0] $end
$var wire 32 % dbg_x5 [31:0] $end
$var wire 32 & dbg_x3 [31:0] $end
$var wire 32 ' dbg_x2 [31:0] $end
$var wire 32 ( dbg_x17 [31:0] $end
$var wire 32 ) dbg_x16 [31:0] $end
$var wire 32 * dbg_x12 [31:0] $end
$var wire 32 + dbg_x11 [31:0] $end
$var wire 32 , dbg_x10 [31:0] $end
$var wire 32 - dbg_x1 [31:0] $end
$var wire 32 . dbg_pc [31:0] $end
$var wire 32 / dbg_if_instr [31:0] $end
$var wire 32 0 dbg_id_instr [31:0] $end
$var wire 32 1 dbg_dm2 [31:0] $end
$var wire 32 2 dbg_dm1 [31:0] $end
$var wire 32 3 dbg_dm0 [31:0] $end
$var reg 1 4 clk $end
$var reg 1 5 rst $end
$var integer 32 6 fail_cnt [31:0] $end
$var integer 32 7 pass_cnt [31:0] $end
$scope module u_dut $end
$var wire 1 4 clk $end
$var wire 32 8 dbg_dm0 [31:0] $end
$var wire 32 9 dbg_dm1 [31:0] $end
$var wire 32 : dbg_dm2 [31:0] $end
$var wire 32 ; dbg_id_instr [31:0] $end
$var wire 32 < dbg_if_instr [31:0] $end
$var wire 32 = dbg_pc [31:0] $end
$var wire 32 > dbg_x1 [31:0] $end
$var wire 32 ? dbg_x10 [31:0] $end
$var wire 32 @ dbg_x11 [31:0] $end
$var wire 32 A dbg_x12 [31:0] $end
$var wire 32 B dbg_x16 [31:0] $end
$var wire 32 C dbg_x17 [31:0] $end
$var wire 32 D dbg_x2 [31:0] $end
$var wire 32 E dbg_x3 [31:0] $end
$var wire 32 F dbg_x5 [31:0] $end
$var wire 32 G dbg_x6 [31:0] $end
$var wire 32 H dbg_x7 [31:0] $end
$var wire 32 I dbg_x8 [31:0] $end
$var wire 32 J dbg_x9 [31:0] $end
$var wire 1 K id_redirect $end
$var wire 1 L id_take_branch $end
$var wire 1 5 rst $end
$var wire 1 M take_branch $end
$var wire 32 N wb_write_data [31:0] $end
$var wire 32 O wb_read_data [31:0] $end
$var wire 5 P wb_rd [4:0] $end
$var wire 32 Q wb_pc_plus4 [31:0] $end
$var wire 32 R wb_alu_result [31:0] $end
$var wire 1 S wb_RegWrite $end
$var wire 1 T wb_MemToReg $end
$var wire 1 U wb_Jump $end
$var wire 1 V stall_pc $end
$var wire 1 W stall_if_id $end
$var wire 32 X pc_next [31:0] $end
$var wire 32 Y pc_current [31:0] $end
$var wire 1 Z mem_zero $end
$var wire 32 [ mem_write_data [31:0] $end
$var wire 32 \ mem_read_data1_reg [31:0] $end
$var wire 32 ] mem_read_data [31:0] $end
$var wire 5 ^ mem_rd [4:0] $end
$var wire 32 _ mem_pc_plus4 [31:0] $end
$var wire 3 ` mem_funct3 [2:0] $end
$var wire 32 a mem_alu_result [31:0] $end
$var wire 1 b mem_RegWrite $end
$var wire 1 c mem_MemWrite $end
$var wire 1 d mem_MemToReg $end
$var wire 1 e mem_MemRead $end
$var wire 1 f mem_Branch $end
$var wire 1 g jump_mem $end
$var wire 32 h if_instr [31:0] $end
$var wire 32 i id_val2 [31:0] $end
$var wire 32 j id_val1 [31:0] $end
$var wire 5 k id_rs2 [4:0] $end
$var wire 5 l id_rs1 [4:0] $end
$var wire 32 m id_read_data2 [31:0] $end
$var wire 32 n id_read_data1 [31:0] $end
$var wire 5 o id_rd [4:0] $end
$var wire 32 p id_pc [31:0] $end
$var wire 7 q id_opcode [6:0] $end
$var wire 32 r id_instr [31:0] $end
$var wire 32 s id_imm [31:0] $end
$var wire 1 t id_funct7_5 $end
$var wire 3 u id_funct3 [2:0] $end
$var wire 32 v id_branch_target [31:0] $end
$var wire 1 w id_RegWrite_gated $end
$var wire 1 x id_RegWrite $end
$var wire 1 y id_MemWrite_gated $end
$var wire 1 z id_MemWrite $end
$var wire 1 { id_MemToReg_gated $end
$var wire 1 | id_MemToReg $end
$var wire 1 } id_MemRead_gated $end
$var wire 1 ~ id_MemRead $end
$var wire 1 !" id_Jump_gated $end
$var wire 1 "" id_Jump $end
$var wire 1 #" id_Branch_gated $end
$var wire 1 $" id_Branch $end
$var wire 1 %" id_ALUSrc_gated $end
$var wire 1 &" id_ALUSrc $end
$var wire 2 '" id_ALUOp_gated [1:0] $end
$var wire 2 (" id_ALUOp [1:0] $end
$var wire 1 )" flush_if_id $end
$var wire 1 *" flush_id_ex $end
$var wire 1 +" ex_zero $end
$var wire 5 ," ex_rs2 [4:0] $end
$var wire 5 -" ex_rs1 [4:0] $end
$var wire 32 ." ex_read_data2 [31:0] $end
$var wire 32 /" ex_read_data1 [31:0] $end
$var wire 5 0" ex_rd [4:0] $end
$var wire 32 1" ex_pc_plus4 [31:0] $end
$var wire 32 2" ex_pc [31:0] $end
$var wire 7 3" ex_opcode [6:0] $end
$var wire 32 4" ex_imm [31:0] $end
$var wire 32 5" ex_fwd_b [31:0] $end
$var wire 32 6" ex_fwd_a [31:0] $end
$var wire 1 7" ex_funct7_5 $end
$var wire 3 8" ex_funct3 [2:0] $end
$var wire 32 9" ex_branch_target [31:0] $end
$var wire 32 :" ex_alu_result [31:0] $end
$var wire 32 ;" ex_alu_b [31:0] $end
$var wire 1 <" ex_RegWrite $end
$var wire 1 =" ex_MemWrite $end
$var wire 1 >" ex_MemToReg $end
$var wire 1 ?" ex_MemRead $end
$var wire 1 @" ex_Jump $end
$var wire 1 A" ex_Branch $end
$var wire 1 B" ex_ALUSrc $end
$var wire 2 C" ex_ALUOp [1:0] $end
$var wire 4 D" ex_ALUCtrl [3:0] $end
$var wire 32 E" branch_target_mem [31:0] $end
$var wire 2 F" ForwardB [1:0] $end
$var wire 2 G" ForwardA [1:0] $end
$var reg 1 H" id_branch_taken $end
$var reg 32 I" if_id_instr_r [31:0] $end
$var reg 32 J" if_id_pc_r [31:0] $end
$scope module u_alu $end
$var wire 32 K" a [31:0] $end
$var wire 32 L" b [31:0] $end
$var wire 1 +" zero $end
$var wire 4 M" ALUCtrl [3:0] $end
$var reg 32 N" result [31:0] $end
$upscope $end
$scope module u_aluctl $end
$var wire 7 O" opcode [6:0] $end
$var wire 1 7" funct7_5 $end
$var wire 3 P" funct3 [2:0] $end
$var wire 2 Q" ALUOp [1:0] $end
$var parameter 7 R" I_ARITH $end
$var reg 4 S" ALUCtrl [3:0] $end
$upscope $end
$scope module u_ctrl $end
$var wire 7 T" opcode [6:0] $end
$var parameter 7 U" BRANCH $end
$var parameter 7 V" I_ARITH $end
$var parameter 7 W" JAL $end
$var parameter 7 X" JALR $end
$var parameter 7 Y" LOAD $end
$var parameter 7 Z" R_TYPE $end
$var parameter 7 [" STORE $end
$var reg 2 \" ALUOp [1:0] $end
$var reg 1 &" ALUSrc $end
$var reg 1 $" Branch $end
$var reg 1 "" Jump $end
$var reg 1 ~ MemRead $end
$var reg 1 | MemToReg $end
$var reg 1 z MemWrite $end
$var reg 1 x RegWrite $end
$upscope $end
$scope module u_dmem $end
$var wire 1 4 clk $end
$var wire 32 ]" write_data [31:0] $end
$var wire 32 ^" read_data [31:0] $end
$var wire 32 _" addr [31:0] $end
$var wire 1 c MemWrite $end
$var wire 1 e MemRead $end
$var integer 32 `" i [31:0] $end
$upscope $end
$scope module u_ex_mem $end
$var wire 1 4 clk $end
$var wire 32 a" in_alu_result [31:0] $end
$var wire 32 b" in_branch_target [31:0] $end
$var wire 32 c" in_pc_plus4 [31:0] $end
$var wire 32 d" in_read_data1 [31:0] $end
$var wire 32 e" in_write_data [31:0] $end
$var wire 1 +" in_zero $end
$var wire 1 5 rst $end
$var wire 5 f" in_rd [4:0] $end
$var wire 3 g" in_funct3 [2:0] $end
$var wire 1 <" in_RegWrite $end
$var wire 1 =" in_MemWrite $end
$var wire 1 >" in_MemToReg $end
$var wire 1 ?" in_MemRead $end
$var wire 1 @" in_Jump $end
$var wire 1 A" in_Branch $end
$var reg 1 f out_Branch $end
$var reg 1 g out_Jump $end
$var reg 1 e out_MemRead $end
$var reg 1 d out_MemToReg $end
$var reg 1 c out_MemWrite $end
$var reg 1 b out_RegWrite $end
$var reg 32 h" out_alu_result [31:0] $end
$var reg 32 i" out_branch_target [31:0] $end
$var reg 3 j" out_funct3 [2:0] $end
$var reg 32 k" out_pc_plus4 [31:0] $end
$var reg 5 l" out_rd [4:0] $end
$var reg 32 m" out_read_data1 [31:0] $end
$var reg 32 n" out_write_data [31:0] $end
$var reg 1 Z out_zero $end
$upscope $end
$scope module u_fwd $end
$var wire 1 b mem_RegWrite $end
$var wire 5 o" mem_rd [4:0] $end
$var wire 5 p" wb_rd [4:0] $end
$var wire 1 S wb_RegWrite $end
$var wire 5 q" ex_rs2 [4:0] $end
$var wire 5 r" ex_rs1 [4:0] $end
$var reg 2 s" ForwardA [1:0] $end
$var reg 2 t" ForwardB [1:0] $end
$upscope $end
$scope module u_hazard $end
$var wire 1 u" branch_jalr_in_id $end
$var wire 1 v" branch_stall $end
$var wire 1 *" flush_id_ex $end
$var wire 1 )" flush_if_id $end
$var wire 1 $" id_Branch $end
$var wire 7 w" id_opcode [6:0] $end
$var wire 1 x" id_reads_rs1 $end
$var wire 1 y" id_reads_rs2 $end
$var wire 1 K id_redirect $end
$var wire 5 z" id_rs1 [4:0] $end
$var wire 5 {" id_rs2 [4:0] $end
$var wire 1 |" load_use_stall $end
$var wire 1 e mem_MemRead $end
$var wire 1 b mem_RegWrite $end
$var wire 5 }" mem_rd [4:0] $end
$var wire 1 ~" stall $end
$var wire 1 W stall_if_id $end
$var wire 1 V stall_pc $end
$var wire 5 !# ex_rd [4:0] $end
$var wire 1 <" ex_RegWrite $end
$var wire 1 ?" ex_MemRead $end
$upscope $end
$scope module u_id_ex $end
$var wire 1 4 clk $end
$var wire 2 "# in_ALUOp [1:0] $end
$var wire 1 %" in_ALUSrc $end
$var wire 1 #" in_Branch $end
$var wire 1 !" in_Jump $end
$var wire 1 } in_MemRead $end
$var wire 1 { in_MemToReg $end
$var wire 1 y in_MemWrite $end
$var wire 1 w in_RegWrite $end
$var wire 3 ## in_funct3 [2:0] $end
$var wire 1 t in_funct7_5 $end
$var wire 7 $# in_opcode [6:0] $end
$var wire 32 %# in_pc [31:0] $end
$var wire 5 &# in_rd [4:0] $end
$var wire 5 '# in_rs1 [4:0] $end
$var wire 5 (# in_rs2 [4:0] $end
$var wire 1 5 rst $end
$var wire 32 )# in_read_data2 [31:0] $end
$var wire 32 *# in_read_data1 [31:0] $end
$var wire 32 +# in_imm [31:0] $end
$var reg 2 ,# out_ALUOp [1:0] $end
$var reg 1 B" out_ALUSrc $end
$var reg 1 A" out_Branch $end
$var reg 1 @" out_Jump $end
$var reg 1 ?" out_MemRead $end
$var reg 1 >" out_MemToReg $end
$var reg 1 =" out_MemWrite $end
$var reg 1 <" out_RegWrite $end
$var reg 3 -# out_funct3 [2:0] $end
$var reg 1 7" out_funct7_5 $end
$var reg 32 .# out_imm [31:0] $end
$var reg 7 /# out_opcode [6:0] $end
$var reg 32 0# out_pc [31:0] $end
$var reg 5 1# out_rd [4:0] $end
$var reg 32 2# out_read_data1 [31:0] $end
$var reg 32 3# out_read_data2 [31:0] $end
$var reg 5 4# out_rs1 [4:0] $end
$var reg 5 5# out_rs2 [4:0] $end
$upscope $end
$scope module u_imem $end
$var wire 32 6# instr [31:0] $end
$var wire 32 7# addr [31:0] $end
$upscope $end
$scope module u_immgen $end
$var wire 32 8# instr [31:0] $end
$var wire 7 9# opcode [6:0] $end
$var parameter 7 :# AUIPC $end
$var parameter 7 ;# BRANCH $end
$var parameter 7 <# I_ARITH $end
$var parameter 7 =# JAL $end
$var parameter 7 ># JALR $end
$var parameter 7 ?# LOAD $end
$var parameter 7 @# LUI $end
$var parameter 7 A# STORE $end
$var reg 32 B# imm_out [31:0] $end
$upscope $end
$scope module u_mem_wb $end
$var wire 1 4 clk $end
$var wire 1 g in_Jump $end
$var wire 1 d in_MemToReg $end
$var wire 1 b in_RegWrite $end
$var wire 32 C# in_alu_result [31:0] $end
$var wire 32 D# in_pc_plus4 [31:0] $end
$var wire 5 E# in_rd [4:0] $end
$var wire 32 F# in_read_data [31:0] $end
$var wire 1 5 rst $end
$var reg 1 U out_Jump $end
$var reg 1 T out_MemToReg $end
$var reg 1 S out_RegWrite $end
$var reg 32 G# out_alu_result [31:0] $end
$var reg 32 H# out_pc_plus4 [31:0] $end
$var reg 5 I# out_rd [4:0] $end
$var reg 32 J# out_read_data [31:0] $end
$upscope $end
$scope module u_pc $end
$var wire 1 4 clk $end
$var wire 32 K# pc_next [31:0] $end
$var wire 1 5 rst $end
$var reg 32 L# pc_out [31:0] $end
$upscope $end
$scope module u_regfile $end
$var wire 1 S RegWrite $end
$var wire 1 4 clk $end
$var wire 5 M# rd [4:0] $end
$var wire 5 N# rs1 [4:0] $end
$var wire 5 O# rs2 [4:0] $end
$var wire 1 5 rst $end
$var wire 32 P# write_data [31:0] $end
$var wire 32 Q# read_data2 [31:0] $end
$var wire 32 R# read_data1 [31:0] $end
$var integer 32 S# i [31:0] $end
$upscope $end
$upscope $end
$scope task do_reset $end
$upscope $end
$scope task flush_imem $end
$var integer 32 T# k [31:0] $end
$upscope $end
$scope task run_cycles $end
$var integer 32 U# i [31:0] $end
$var integer 32 V# n [31:0] $end
$upscope $end
$upscope $end
$scope module tb_hazard_fwd $end
$scope module u_dut $end
$scope module u_alu $end
$upscope $end
$scope module u_aluctl $end
$upscope $end
$scope module u_ctrl $end
$upscope $end
$scope module u_dmem $end
$upscope $end
$scope module u_ex_mem $end
$upscope $end
$scope module u_fwd $end
$upscope $end
$scope module u_hazard $end
$upscope $end
$scope module u_id_ex $end
$upscope $end
$scope module u_imem $end
$upscope $end
$scope module u_immgen $end
$upscope $end
$scope module u_mem_wb $end
$upscope $end
$scope module u_pc $end
$upscope $end
$scope module u_regfile $end
$upscope $end
$upscope $end
$scope task do_reset $end
$upscope $end
$scope task flush_imem $end
$upscope $end
$scope task run_cycles $end
$upscope $end
$upscope $end
$enddefinitions $end
$comment Show the parameter values. $end
$dumpall
b100011 A#
b110111 @#
b11 ?#
b1100111 >#
b1101111 =#
b10011 <#
b1100011 ;#
b10111 :#
b100011 ["
b110011 Z"
b11 Y"
b1100111 X"
b1101111 W"
b10011 V"
b1100011 U"
b10011 R"
$end
#0
$dumpvars
bx V#
bx U#
bx T#
b100000 S#
b0 R#
b0 Q#
b0 P#
b0 O#
b0 N#
b0 M#
b0 L#
b100 K#
b0 J#
b0 I#
b0 H#
b0 G#
b0 F#
b0 E#
b0 D#
b0 C#
b0 B#
b0 9#
b0 8#
b0 7#
bx 6#
b0 5#
b0 4#
b0 3#
b0 2#
b0 1#
b0 0#
b0 /#
b0 .#
b0 -#
b0 ,#
b0 +#
b0 *#
b0 )#
b0 (#
b0 '#
b0 &#
b0 %#
b0 $#
b0 ##
b0 "#
b0 !#
0~"
b0 }"
0|"
b0 {"
b0 z"
0y"
1x"
b0 w"
0v"
0u"
b0 t"
b0 s"
b0 r"
b0 q"
b0 p"
b0 o"
b0 n"
b0 m"
b0 l"
b0 k"
b0 j"
b0 i"
b0 h"
b0 g"
b0 f"
b0 e"
b0 d"
b100 c"
b0 b"
b0 a"
b1000000 `"
b0 _"
b0 ^"
b0 ]"
b0 \"
b0 T"
b0 S"
b0 Q"
b0 P"
b0 O"
b0 N"
b0 M"
b0 L"
b0 K"
b0 J"
b0 I"
1H"
b0 G"
b0 F"
b0 E"
b0 D"
b0 C"
0B"
0A"
0@"
0?"
0>"
0="
0<"
b0 ;"
b0 :"
b0 9"
b0 8"
07"
b0 6"
b0 5"
b0 4"
b0 3"
b0 2"
b100 1"
b0 0"
b0 /"
b0 ."
b0 -"
b0 ,"
1+"
0*"
0)"
b0 ("
b0 '"
0&"
0%"
0$"
0#"
0""
0!"
0~
0}
0|
0{
0z
0y
0x
0w
b0 v
b0 u
0t
b0 s
b0 r
b0 q
b0 p
b0 o
b0 n
b0 m
b0 l
b0 k
b0 j
b0 i
bx h
0g
0f
0e
0d
0c
0b
b0 a
b0 `
b0 _
b0 ^
b0 ]
b0 \
b0 [
0Z
b0 Y
b100 X
0W
0V
0U
0T
0S
b0 R
b0 Q
b0 P
b0 O
b0 N
0M
0L
0K
b0 J
b0 I
b0 H
b0 G
b0 F
b0 E
b0 D
b0 C
b0 B
b0 A
b0 @
b0 ?
b0 >
b0 =
bx <
b0 ;
b0 :
b0 9
b0 8
b0 7
b0 6
15
04
b0 3
b0 2
b0 1
b0 0
bx /
b0 .
b0 -
b0 ,
b0 +
b0 *
b0 )
b0 (
b0 '
b0 &
b0 %
b0 $
b0 #
b0 "
b0 !
$end
#5000
b100000 S#
14
#10000
04
#15000
b100000 S#
14
#20000
04
b11100000000000010010011 /
b11100000000000010010011 <
b11100000000000010010011 h
b11100000000000010010011 6#
b1000000 T#
#25000
b100000 S#
14
#30000
04
#35000
b100000 S#
14
#40000
04
#45000
b100000 S#
14
#50000
b0 U#
b10100 V#
05
04
#55000
b10 '"
b10 "#
1%"
1w
b1000 X
b1000 K#
b10 ("
b10 \"
1&"
1x
b111 v
b1100001000000010010011 /
b1100001000000010010011 <
b1100001000000010010011 h
b1100001000000010010011 6#
b10011 q
b10011 T"
b10011 w"
b10011 $#
b1 o
b1 &#
b111 k
b111 {"
b111 (#
b111 O#
b111 s
b111 +#
b111 B#
b10011 9#
b100 .
b100 =
b100 Y
b100 7#
b100 L#
b100 _
b100 k"
b100 D#
1Z
b11100000000000010010011 0
b11100000000000010010011 ;
b11100000000000010010011 r
b11100000000000010010011 I"
b11100000000000010010011 8#
b1 U#
14
#60000
04
#65000
0+"
b111 :"
b111 N"
b111 a"
b1100 X
b1100 K#
b1 l
b1 z"
b1 '#
b1 N#
b11 k
b11 {"
b11 (#
b11 O#
b11 s
b11 +#
b11 B#
b111 v
b111 ;"
b111 L"
b10100001000000100010011 /
b10100001000000100010011 <
b10100001000000100010011 h
b10100001000000100010011 6#
b1100001000000010010011 0
b1100001000000010010011 ;
b1100001000000010010011 r
b1100001000000010010011 I"
b1100001000000010010011 8#
b100 p
b100 J"
b100 %#
b100 Q
b100 H#
b10011 3"
b10011 O"
b10011 /#
b1 0"
b1 f"
b1 !#
b1 1#
b111 ,"
b111 q"
b111 5#
b111 9"
b111 b"
b111 4"
b111 .#
b10 C"
b10 Q"
b10 ,#
1B"
1<"
b1000 .
b1000 =
b1000 Y
b1000 7#
b1000 L#
b10 U#
14
#70000
04
#75000
0H"
b10000 X
b10000 K#
b1010 :"
b1010 N"
b1010 a"
b111 j
b111 6"
b111 K"
b111 d"
b1000001000000110110011 /
b1000001000000110110011 <
b1000001000000110110011 h
b1000001000000110110011 6#
b11 ;"
b11 L"
b10 G"
b10 s"
b10 o
b10 &#
b101 k
b101 {"
b101 (#
b101 O#
b101 s
b101 +#
b101 B#
b1101 v
b1100 .
b1100 =
b1100 Y
b1100 7#
b1100 L#
b11 ,"
b11 q"
b11 5#
b1 -"
b1 r"
b1 4#
b11 4"
b11 .#
b1000 1"
b1000 c"
b111 9"
b111 b"
b100 2"
b100 0#
b1 ^
b1 l"
b1 o"
b1 }"
b1 E#
b111 a
b111 _"
b111 h"
b111 C#
0Z
b111 E"
b111 i"
1b
b10100001000000100010011 0
b10100001000000100010011 ;
b10100001000000100010011 r
b10100001000000100010011 I"
b10100001000000100010011 8#
b1000 p
b1000 J"
b1000 %#
b11 U#
14
#80000
04
#85000
b111 n
b111 *#
b111 R#
0%"
1y"
b10 ("
b10 \"
0&"
1x
b111 N
b111 P#
b1111 :"
b1111 N"
b1111 a"
b10100 X
b10100 K#
b110011 q
b110011 T"
b110011 w"
b110011 $#
b11 o
b11 &#
b10 k
b10 {"
b10 (#
b10 O#
b0 s
b0 +#
b0 B#
b110011 9#
b1100 v
b1010 6"
b1010 K"
b1010 d"
b1010 j
b101 ;"
b101 L"
b10011 /
b10011 <
b10011 h
b10011 6#
b1000001000000110110011 0
b1000001000000110110011 ;
b1000001000000110110011 r
b1000001000000110110011 I"
b1000001000000110110011 8#
b1100 p
b1100 J"
b1100 %#
b1 P
b1 p"
b1 I#
b1 M#
b111 R
b111 G#
1S
b111 \
b111 m"
b1000 _
b1000 k"
b1000 D#
b1010 a
b1010 _"
b1010 h"
b1010 C#
b10 0"
b10 f"
b10 !#
b10 1#
b101 ,"
b101 q"
b101 5#
b101 4"
b101 .#
b1100 1"
b1100 c"
b1101 9"
b1101 b"
b1000 2"
b1000 0#
b10000 .
b10000 =
b10000 Y
b10000 7#
b10000 L#
b100 U#
14
#90000
04
#95000
1H"
b11001 :"
b11001 N"
b11001 a"
1%"
0y"
b11000 X
b11000 K#
b1111 5"
b1111 e"
b1010 N
b1010 P#
1&"
b10 ("
b10 \"
1x
b0 n
b0 *#
b0 R#
b1111 ;"
b1111 L"
b10 F"
b10 t"
b1 G"
b1 s"
b1010 6"
b1010 K"
b1010 d"
b0 j
b10011 q
b10011 T"
b10011 w"
b10011 $#
b0 o
b0 &#
b0 l
b0 z"
b0 '#
b0 N#
b0 k
b0 {"
b0 (#
b0 O#
b10011 9#
b10000 v
b10100 .
b10100 =
b10100 Y
b10100 7#
b10100 L#
b111 -
b111 >
b110011 3"
b110011 O"
b110011 /#
b11 0"
b11 f"
b11 !#
b11 1#
b10 ,"
b10 q"
b10 5#
b0 4"
b0 .#
b111 /"
b111 2#
b10000 1"
b10000 c"
b1100 9"
b1100 b"
b1100 2"
b1100 0#
0B"
b1010 \
b1010 m"
b1100 _
b1100 k"
b1100 D#
b10 ^
b10 l"
b10 o"
b10 }"
b10 E#
b1111 a
b1111 _"
b1111 h"
b1111 C#
b1101 E"
b1101 i"
b1000 Q
b1000 H#
b1010 R
b1010 G#
b10011 0
b10011 ;
b10011 r
b10011 I"
b10011 8#
b10000 p
b10000 J"
b10000 %#
b101 U#
14
#100000
04
#105000
1+"
b0 6"
b0 K"
b0 d"
b1111 N
b1111 P#
b0 :"
b0 N"
b0 a"
b11100 X
b11100 K#
b10100 v
b0 5"
b0 e"
b0 F"
b0 t"
b0 G"
b0 s"
b0 ;"
b0 L"
b10100 p
b10100 J"
b10100 %#
b1100 Q
b1100 H#
b10 P
b10 p"
b10 I#
b10 M#
b1111 R
b1111 G#
b10000 _
b10000 k"
b10000 D#
b11 ^
b11 l"
b11 o"
b11 }"
b11 E#
b1111 [
b1111 ]"
b1111 n"
b11001 a
b11001 _"
b11001 h"
b11001 C#
b1100 E"
b1100 i"
b10011 3"
b10011 O"
b10011 /#
b0 0"
b0 f"
b0 !#
b0 1#
b0 ,"
b0 q"
b0 5#
b0 -"
b0 r"
b0 4#
b0 /"
b0 2#
b10100 1"
b10100 c"
b10000 9"
b10000 b"
b10000 2"
b10000 0#
1B"
b1010 -
b1010 >
b11000 .
b11000 =
b11000 Y
b11000 7#
b11000 L#
b110 U#
14
#110000
04
#115000
b100000 X
b100000 K#
b11001 N
b11001 P#
b11000 v
b11100 .
b11100 =
b11100 Y
b11100 7#
b11100 L#
b1111 '
b1111 D
b11000 1"
b11000 c"
b10100 9"
b10100 b"
b10100 2"
b10100 0#
b0 \
b0 m"
b10100 _
b10100 k"
b10100 D#
b0 ^
b0 l"
b0 o"
b0 }"
b0 E#
b0 [
b0 ]"
b0 n"
b0 a
b0 _"
b0 h"
b0 C#
1Z
b10000 E"
b10000 i"
b10000 Q
b10000 H#
b11 P
b11 p"
b11 I#
b11 M#
b11001 R
b11001 G#
b11000 p
b11000 J"
b11000 %#
b111 U#
14
#120000
04
#125000
b0 N
b0 P#
b100100 X
b100100 K#
b11100 v
b11100 p
b11100 J"
b11100 %#
b10100 Q
b10100 H#
b0 P
b0 p"
b0 I#
b0 M#
b0 R
b0 G#
b11000 _
b11000 k"
b11000 D#
b10100 E"
b10100 i"
b11100 1"
b11100 c"
b11000 9"
b11000 b"
b11000 2"
b11000 0#
b11001 &
b11001 E
b100000 .
b100000 =
b100000 Y
b100000 7#
b100000 L#
b1000 U#
14
#130000
04
#135000
b101000 X
b101000 K#
b100000 v
b100100 .
b100100 =
b100100 Y
b100100 7#
b100100 L#
b100000 1"
b100000 c"
b11100 9"
b11100 b"
b11100 2"
b11100 0#
b11100 _
b11100 k"
b11100 D#
b11000 E"
b11000 i"
b11000 Q
b11000 H#
b100000 p
b100000 J"
b100000 %#
b1001 U#
14
#140000
04
#145000
b101100 X
b101100 K#
b100100 v
b100100 p
b100100 J"
b100100 %#
b11100 Q
b11100 H#
b100000 _
b100000 k"
b100000 D#
b11100 E"
b11100 i"
b100100 1"
b100100 c"
b100000 9"
b100000 b"
b100000 2"
b100000 0#
b101000 .
b101000 =
b101000 Y
b101000 7#
b101000 L#
b1010 U#
14
#150000
04
#155000
b110000 X
b110000 K#
b101000 v
b101100 .
b101100 =
b101100 Y
b101100 7#
b101100 L#
b101000 1"
b101000 c"
b100100 9"
b100100 b"
b100100 2"
b100100 0#
b100100 _
b100100 k"
b100100 D#
b100000 E"
b100000 i"
b100000 Q
b100000 H#
b101000 p
b101000 J"
b101000 %#
b1011 U#
14
#160000
04
#165000
b110100 X
b110100 K#
b101100 v
b101100 p
b101100 J"
b101100 %#
b100100 Q
b100100 H#
b101000 _
b101000 k"
b101000 D#
b100100 E"
b100100 i"
b101100 1"
b101100 c"
b101000 9"
b101000 b"
b101000 2"
b101000 0#
b110000 .
b110000 =
b110000 Y
b110000 7#
b110000 L#
b1100 U#
14
#170000
04
#175000
b111000 X
b111000 K#
b110000 v
b110100 .
b110100 =
b110100 Y
b110100 7#
b110100 L#
b110000 1"
b110000 c"
b101100 9"
b101100 b"
b101100 2"
b101100 0#
b101100 _
b101100 k"
b101100 D#
b101000 E"
b101000 i"
b101000 Q
b101000 H#
b110000 p
b110000 J"
b110000 %#
b1101 U#
14
#180000
04
#185000
b111100 X
b111100 K#
b110100 v
b110100 p
b110100 J"
b110100 %#
b101100 Q
b101100 H#
b110000 _
b110000 k"
b110000 D#
b101100 E"
b101100 i"
b110100 1"
b110100 c"
b110000 9"
b110000 b"
b110000 2"
b110000 0#
b111000 .
b111000 =
b111000 Y
b111000 7#
b111000 L#
b1110 U#
14
#190000
04
#195000
b1000000 X
b1000000 K#
b111000 v
b111100 .
b111100 =
b111100 Y
b111100 7#
b111100 L#
b111000 1"
b111000 c"
b110100 9"
b110100 b"
b110100 2"
b110100 0#
b110100 _
b110100 k"
b110100 D#
b110000 E"
b110000 i"
b110000 Q
b110000 H#
b111000 p
b111000 J"
b111000 %#
b1111 U#
14
#200000
04
#205000
b1000100 X
b1000100 K#
b111100 v
b111100 p
b111100 J"
b111100 %#
b110100 Q
b110100 H#
b111000 _
b111000 k"
b111000 D#
b110100 E"
b110100 i"
b111100 1"
b111100 c"
b111000 9"
b111000 b"
b111000 2"
b111000 0#
b1000000 .
b1000000 =
b1000000 Y
b1000000 7#
b1000000 L#
b10000 U#
14
#210000
04
#215000
b1001000 X
b1001000 K#
b1000000 v
b1000100 .
b1000100 =
b1000100 Y
b1000100 7#
b1000100 L#
b1000000 1"
b1000000 c"
b111100 9"
b111100 b"
b111100 2"
b111100 0#
b111100 _
b111100 k"
b111100 D#
b111000 E"
b111000 i"
b111000 Q
b111000 H#
b1000000 p
b1000000 J"
b1000000 %#
b10001 U#
14
#220000
04
#225000
b1001100 X
b1001100 K#
b1000100 v
b1000100 p
b1000100 J"
b1000100 %#
b111100 Q
b111100 H#
b1000000 _
b1000000 k"
b1000000 D#
b111100 E"
b111100 i"
b1000100 1"
b1000100 c"
b1000000 9"
b1000000 b"
b1000000 2"
b1000000 0#
b1001000 .
b1001000 =
b1001000 Y
b1001000 7#
b1001000 L#
b10010 U#
14
#230000
04
#235000
b1010000 X
b1010000 K#
b1001000 v
b1001100 .
b1001100 =
b1001100 Y
b1001100 7#
b1001100 L#
b1001000 1"
b1001000 c"
b1000100 9"
b1000100 b"
b1000100 2"
b1000100 0#
b1000100 _
b1000100 k"
b1000100 D#
b1000000 E"
b1000000 i"
b1000000 Q
b1000000 H#
b1001000 p
b1001000 J"
b1001000 %#
b10011 U#
14
#240000
04
#245000
b1010100 X
b1010100 K#
b1001100 v
b1001100 p
b1001100 J"
b1001100 %#
b1000100 Q
b1000100 H#
b1001000 _
b1001000 k"
b1001000 D#
b1000100 E"
b1000100 i"
b1001100 1"
b1001100 c"
b1001000 9"
b1001000 b"
b1001000 2"
b1001000 0#
b1010000 .
b1010000 =
b1010000 Y
b1010000 7#
b1010000 L#
b10100 U#
14
#246000
b0 '"
b0 "#
0%"
0w
b100 X
b100 K#
b0 ("
b0 \"
0&"
0x
b110000000000000010010011 /
b110000000000000010010011 <
b110000000000000010010011 h
b110000000000000010010011 6#
b0 q
b0 T"
b0 w"
b0 $#
b0 9#
b0 v
b0 .
b0 =
b0 Y
b0 7#
b0 L#
b0 &
b0 E
b0 '
b0 D
b0 -
b0 >
b0 3"
b0 O"
b0 /#
b100 1"
b100 c"
b0 9"
b0 b"
b0 2"
b0 0#
b0 C"
b0 Q"
b0 ,#
0B"
0<"
b0 _
b0 k"
b0 D#
0Z
b0 E"
b0 i"
0b
b0 Q
b0 H#
0S
b0 0
b0 ;
b0 r
b0 I"
b0 8#
b0 p
b0 J"
b0 %#
b100000 S#
15
b1000000 T#
b11 7
#250000
04
#255000
b100000 S#
14
#260000
04
#265000
b100000 S#
14
#270000
04
#275000
b100000 S#
14
#280000
b0 U#
05
04
